<?xml version="1.0" standalone="no"?>
<!DOCTYPE svg PUBLIC "-//W3C//DTD SVG 20010904//EN"
 "http://www.w3.org/TR/2001/REC-SVG-20010904/DTD/svg10.dtd">
<svg version="1.0" xmlns="http://www.w3.org/2000/svg"
 width="512.000000pt" height="512.000000pt" viewBox="0 0 512.000000 512.000000"
 preserveAspectRatio="xMidYMid meet">
<metadata>
Created by potrace 1.14, written by Peter Selinger 2001-2017
</metadata>
<g transform="translate(0.000000,512.000000) scale(0.100000,-0.100000)"
fill="#000000" stroke="none">
<path d="M1860 5101 c-19 -10 -45 -30 -58 -44 -13 -13 -216 -474 -451 -1023
l-428 -999 51 -5 c28 -3 54 -3 59 0 4 3 59 127 122 274 64 148 122 283 129
300 8 17 67 155 131 306 65 151 125 293 135 315 10 22 46 105 80 185 33 80 65
154 70 165 5 11 46 106 90 210 44 105 90 198 101 208 23 19 70 22 97 7 9 -5
243 -107 520 -225 l503 -215 44 32 c24 18 44 36 45 39 0 7 -24 19 -155 74 -60
26 -123 53 -140 60 -16 7 -127 55 -245 105 -118 51 -228 98 -245 105 -322 143
-390 162 -455 126z"/>
<path d="M2180 4851 c0 -5 -19 -28 -42 -51 -85 -84 -200 -119 -310 -95 -18 4
-28 2 -28 -5 0 -9 -84 -212 -140 -335 -9 -22 -43 -101 -75 -175 -31 -74 -65
-153 -75 -175 -10 -22 -49 -114 -88 -205 -39 -91 -129 -301 -200 -467 l-130
-303 61 47 c34 26 107 84 163 129 55 44 111 87 123 96 l22 16 -24 77 c-49 156
-15 305 94 415 134 136 388 174 587 89 24 -11 49 -16 55 -12 7 4 86 66 177
138 91 72 229 181 306 243 l142 112 -15 42 c-9 27 -13 69 -11 111 l3 68 -290
125 c-159 68 -293 124 -297 124 -5 0 -8 -4 -8 -9z"/>
<path d="M3355 4684 c-22 -8 -95 -58 -162 -112 -66 -53 -192 -153 -279 -222
-87 -69 -237 -188 -334 -265 -97 -77 -192 -152 -211 -167 -58 -45 -212 -167
-248 -196 -34 -27 -328 -260 -678 -537 l-189 -150 83 -3 83 -3 198 157 c108
86 212 168 230 183 19 14 46 36 60 48 23 18 322 255 431 341 19 15 83 65 141
112 59 47 124 99 145 115 22 17 84 66 140 110 55 44 141 112 191 151 50 40
100 79 110 87 51 43 292 231 311 244 53 35 85 6 303 -277 11 -14 39 -50 63
-80 24 -30 99 -125 166 -210 68 -85 130 -164 139 -175 149 -182 164 -205 160
-247 -3 -29 -20 -46 -158 -156 -85 -68 -162 -128 -170 -135 -8 -7 -35 -28 -60
-47 -25 -19 -52 -40 -60 -47 -24 -18 -153 -122 -171 -137 -9 -8 -25 -18 -35
-24 -21 -12 -25 -12 98 -15 57 -1 70 5 153 74 11 9 110 88 220 174 237 186
271 218 286 263 16 47 5 126 -23 165 -12 18 -87 113 -166 212 -79 99 -152 191
-162 204 -280 357 -421 528 -450 546 -45 30 -104 37 -155 19z"/>
<path d="M2995 4220 c-200 -159 -202 -161 -251 -200 -17 -14 -48 -38 -70 -55
-21 -16 -93 -73 -159 -125 -66 -53 -167 -133 -225 -179 -58 -46 -122 -97 -143
-114 -21 -17 -97 -77 -170 -134 -73 -57 -139 -109 -147 -116 -8 -7 -80 -64
-160 -127 -182 -144 -178 -140 -148 -140 13 -1 195 -2 406 -3 336 -2 381 0
376 13 -53 122 -69 192 -66 294 3 116 64 254 133 304 10 7 24 19 32 26 43 44
155 79 247 77 270 -3 518 -224 568 -507 9 -55 8 -176 -3 -194 -7 -11 12 -13
160 -10 89 1 103 4 125 24 14 12 118 96 233 186 114 89 209 166 212 170 2 4
-5 31 -16 60 -41 107 -20 236 52 329 19 23 18 23 -29 85 -26 33 -50 63 -53 66
-3 3 -47 59 -99 125 -52 66 -105 134 -119 150 -15 17 -39 47 -54 67 l-29 36
-46 -21 c-95 -43 -244 -24 -329 43 -14 11 -28 20 -32 20 -3 0 -91 -68 -196
-150z"/>
<path d="M1743 3738 c-16 -19 -35 -45 -59 -86 0 -1 -13 2 -28 8 -32 12 -62 0
-71 -29 -9 -28 4 -49 37 -60 24 -9 29 -16 28 -38 -1 -16 -2 -34 -1 -41 1 -18
111 73 134 112 11 17 31 44 46 59 l26 29 -39 34 c-22 19 -42 34 -46 34 -4 0
-16 -10 -27 -22z"/>
<path d="M2661 3549 c-13 -5 -36 -18 -51 -29 l-28 -20 -26 25 c-30 28 -39 30
-67 15 -23 -13 -25 -47 -3 -78 14 -21 13 -26 -12 -77 -32 -67 -29 -129 11
-181 49 -64 105 -73 235 -38 104 29 114 29 138 4 28 -30 17 -64 -34 -108 l-44
-37 86 3 c101 3 116 14 135 98 13 58 3 103 -32 149 -48 60 -115 70 -239 36
-96 -27 -126 -27 -141 0 -15 28 0 59 43 92 38 29 104 58 112 49 11 -11 6 9
-15 59 -22 51 -28 54 -68 38z"/>
<path d="M657 3332 c-83 -21 -148 -76 -194 -164 l-28 -53 -1 -1424 c-2 -1330
-1 -1428 16 -1477 30 -93 94 -159 190 -195 49 -19 93 -19 1878 -17 l1827 3 51
27 c63 33 120 90 147 148 21 43 22 59 25 458 l3 412 -435 0 c-392 0 -440 2
-493 18 -72 23 -125 56 -180 112 -152 157 -148 412 7 569 49 49 132 97 192
110 28 6 218 11 477 11 l431 1 0 392 c0 250 -4 406 -11 432 -26 97 -102 175
-204 209 -46 16 -184 17 -1835 18 -1896 0 -1833 -2 -1859 45 -28 53 -14 118
33 148 12 8 52 17 87 19 35 2 67 4 70 5 7 1 68 141 83 187 6 21 4 21 -111 20
-64 0 -139 -7 -166 -14z m130 -668 c7 -19 -15 -44 -38 -44 -11 0 -19 -9 -21
-22 -2 -17 -10 -23 -28 -23 -44 0 -39 74 6 98 30 16 73 11 81 -9z m261 13 c13
-9 17 -46 5 -48 -25 -5 -161 -7 -175 -2 -20 5 -25 49 -7 55 20 7 164 2 177 -5z
m310 -1 c17 -11 15 -34 -5 -44 -19 -10 -122 -14 -159 -6 -30 5 -39 43 -13 52
25 10 161 8 177 -2z m313 -3 c8 -8 8 -17 1 -30 -9 -15 -24 -18 -94 -19 -99 -2
-129 14 -95 48 17 17 171 18 188 1z m300 8 c13 -2 19 -34 9 -46 -12 -14 -156
-17 -182 -4 -16 9 -18 24 -6 44 5 8 142 13 179 6z m305 0 c20 -2 24 -40 6 -50
-23 -12 -164 -11 -179 1 -20 16 -15 38 8 46 17 7 111 8 165 3z m315 0 c4 -1 9
-10 12 -21 8 -29 -17 -38 -107 -36 -64 1 -81 4 -90 19 -19 31 13 44 101 41 43
-1 81 -2 84 -3z m307 -5 c13 -8 17 -45 5 -48 -21 -4 -151 -6 -170 -2 -27 5
-31 38 -8 52 19 10 156 9 173 -2z m310 1 c18 -12 15 -45 -5 -51 -15 -4 -151
-2 -175 3 -12 2 -9 49 3 53 20 7 164 2 177 -5z m314 -5 c9 -9 10 -17 2 -30 -9
-13 -28 -17 -89 -19 -43 -1 -86 2 -96 8 -21 11 -14 46 10 51 39 8 162 1 173
-10z m299 9 c14 -2 19 -34 8 -47 -7 -9 -35 -13 -92 -12 -99 1 -127 16 -94 50
10 9 38 13 93 12 43 -1 82 -2 85 -3z m320 -12 c21 -33 3 -43 -81 -46 -81 -3
-106 2 -114 23 -12 31 10 40 99 39 63 -1 89 -5 96 -16z m159 1 c41 -22 46 -93
8 -103 -15 -4 -23 1 -31 23 -7 18 -22 33 -39 39 -21 8 -26 14 -21 28 12 33 37
37 83 13z m-3586 -186 c13 -5 16 -23 16 -93 0 -91 -8 -112 -41 -104 -17 5 -19
15 -19 98 0 65 4 95 13 98 6 3 13 6 14 6 1 1 8 -2 17 -5z m3614 -11 c4 -10 7
-53 6 -97 -1 -83 -12 -103 -46 -85 -15 8 -18 23 -18 85 0 41 5 84 10 95 13 24
37 25 48 2z m-3600 -388 c2 -75 0 -92 -14 -102 -33 -24 -44 2 -44 97 0 89 5
101 40 97 12 -2 16 -21 18 -92z m3598 83 c4 -6 7 -50 7 -96 0 -89 -10 -109
-44 -91 -15 8 -18 23 -17 92 0 45 5 88 10 95 13 15 35 16 44 0z m-3601 -398
c0 -95 0 -95 -25 -95 -24 0 -25 2 -28 84 -3 100 0 113 30 109 22 -3 23 -7 23
-98z m0 -310 c0 -95 0 -95 -25 -95 -24 0 -25 2 -28 84 -3 100 0 113 30 109 22
-3 23 -7 23 -98z m0 -310 c0 -95 0 -95 -25 -95 -24 0 -25 2 -28 84 -3 100 0
113 30 109 22 -3 23 -7 23 -98z m5 -310 c0 -91 -8 -108 -45 -94 -12 5 -15 25
-15 95 0 73 3 90 17 98 33 18 43 -6 43 -99z m3603 10 c3 -93 -9 -123 -40 -104
-15 9 -18 26 -19 98 -1 81 0 88 20 96 11 4 25 5 29 0 5 -4 9 -44 10 -90z
m-3615 -222 c18 -18 16 -172 -3 -188 -12 -10 -18 -10 -30 0 -11 9 -15 34 -15
94 0 74 9 106 30 106 3 0 11 -5 18 -12z m3601 3 c10 -7 14 -29 14 -78 -1 -105
-2 -110 -19 -117 -32 -12 -43 12 -43 97 0 95 13 120 48 98z m-3589 -311 c0
-13 7 -20 19 -20 37 0 51 -47 18 -59 -26 -10 -65 3 -83 27 -17 21 -18 64 -2
80 16 16 48 -3 48 -28z m3602 7 c6 -34 -18 -74 -52 -86 -26 -9 -34 -7 -51 10
-16 16 -18 23 -8 35 6 8 20 14 30 14 12 0 19 7 19 20 0 21 27 41 46 33 7 -3
14 -14 16 -26z m-3289 -34 c19 -5 23 -38 6 -48 -15 -10 -146 -12 -169 -3 -22
8 -27 43 -7 52 15 6 146 6 170 -1z m321 -16 c19 -31 -12 -43 -100 -40 -88 2
-118 18 -89 47 25 25 173 19 189 -7z m303 11 c13 -22 12 -39 -3 -45 -13 -5
-114 -7 -165 -4 -25 2 -33 33 -13 48 24 17 170 18 181 1z m313 -3 c12 -15 3
-45 -14 -46 -16 -1 -138 -1 -157 0 -22 1 -32 30 -18 48 16 18 174 17 189 -2z
m310 -5 c21 -40 -19 -49 -178 -41 -18 1 -26 29 -13 45 8 10 37 14 96 14 73 1
86 -2 95 -18z m303 8 c15 -12 16 -16 4 -32 -12 -16 -27 -19 -96 -19 -86 0
-107 9 -97 41 6 17 16 20 89 21 54 1 88 -3 100 -11z m301 6 c18 -7 22 -39 6
-49 -16 -10 -146 -12 -170 -3 -22 8 -27 43 -7 51 18 8 152 8 171 1z m309 0
c20 -6 23 -37 5 -51 -15 -10 -159 -9 -177 1 -11 7 -15 39 -5 48 7 7 153 9 177
2z m321 -17 c19 -31 -12 -43 -99 -40 -89 2 -119 18 -90 47 25 25 173 19 189
-7z m306 2 c19 -35 -1 -44 -91 -43 -67 1 -85 5 -95 19 -24 33 0 45 92 45 74 0
85 -2 94 -21z m309 7 c13 -15 5 -46 -13 -47 -16 -1 -138 -1 -157 0 -21 1 -33
30 -19 46 15 18 175 18 189 1z"/>
<path d="M4123 3217 c-51 -39 -92 -74 -93 -77 0 -11 240 -6 241 5 3 31 -5 65
-27 103 -14 23 -26 42 -27 42 -1 0 -43 -33 -94 -73z"/>
<path d="M3663 1751 c-162 -56 -244 -219 -192 -386 23 -76 91 -153 166 -187
47 -22 56 -23 513 -25 309 -2 475 0 496 7 24 8 34 19 37 38 3 15 5 137 6 271
0 238 -4 274 -33 293 -6 4 -220 8 -476 8 -420 -1 -470 -2 -517 -19z m155 -146
c12 -3 36 -20 52 -37 52 -54 60 -133 19 -193 -32 -46 -72 -67 -129 -68 -130
-1 -199 152 -114 251 47 55 87 66 172 47z"/>
</g>
</svg>
